{
  "type": "service_account",
  "project_id": "shuttle-tracking-166812",
  "private_key_id": "4d0d09bcb32e464a3375c51ed3d0621aa17406da",
  "private_key": "-----BEGIN PRIVATE KEY-----\nMIIEvQIBADANBgkqhkiG9w0BAQEFAASCBKcwggSjAgEAAoIBAQDaYyyE2OzzURBa\nqD3ZCXJQON4mTEkrUP7GrB4F4NSzwMidkJPWwG3q0xw6VRNkka4DVYep2XU/Avyq\nLBtpEojQIblFlHwkoerz+rIISdeK/y8uwlJ3jhWko13iEAroZDgrLfE7QWmUGqMK\n0htl9EWhi6qLtf3skJYirHH+GWq/iKBBUfFy/t35pI/2aWP7WqB245z5gk4SoOsA\nLBRrN2yFV4zhTB3s6UjEmPmsHHK2U51/yteJ0vncc+V10M/qKFat0oZ5UI+U+Twi\n33xHsOl/pIiFcqN+HJsc8SyR6Hsjp68xA6dZ7kLXA95V/Sr+//a1e+pxMUxcQOLD\nrE9ANDoVAgMBAAECggEAOy7SM0RYXo4y6OacMDOrq4rlxSo6UAdYrD2bu0sVSYtu\nsqiqL/IhN5izlylUIpaKOnQU2lZIvGVSVMm0OfLgacsh2vXk+MZ6lljzo2RjidMj\nFcBqueSi/+WX/ToMwrLaN/Vw4PaWpqDbW4TaEPS0ZBWmB8uvv0rlrQrfr5VyxOnB\nG9qelsDGwML8qJNlVHAtcfSY99u6aw9hva31XdKnTpIrAdPHbk2THpAeTj9mR2sC\nFZZZsUYbyUFZSdbGCPqVqHEGWayVpEfGNdbjGW+TSS1NZK4dZh5JEcOfMNYnjdGD\nF/Tz6hYpk2goRIBa2djQKathAv46F9O0UWTwifSRlwKBgQDwYUBBe+L51HO4wIEW\n9lPHZNrR7MkUylsSLDfC1POyHHS66bIvqU5tn6AYwONTp8tkiHX7IiS+NRUbEwlv\nxFWjyXXinf2yK4Bj3EFweFC40Gxti39PpIMT6Y9JPLlMCEu7H2z7FcmIYdyBU60v\nXQaRKmgJaVHiYygdXmkW1RonfwKBgQDolBM82YEoHwZ8ew7PKoZR5NpfuxgbcPAJ\nOrOmS0aAQM7n9ompKYIdkcQEYRVho0Bw04VUy9T9ziRbBUCr2LL8auKbW1e3xZJS\nXGGQ2poLeJa7egL64iUCgS+6WNyzkJZeEARLFhx5V2KugOiuC+D2+xpMQE6sqJ57\nBJHXsdZIawKBgB7AUjgOYTsUsrkv51PIr28St+ujHxZJzNzGS1vhYkum2EgRHXp7\nbk0X3qNMCcjp7lsuGenGtGyg3dJY3RwvQcVyQGJ9U7c3WXVs9/IrcigygayB7AeE\nRECH4Iy99/aCGS4XFxoH74BDBLKGweENRYnMowKRNqh/huI68ba6DF6BAoGBAMQw\nXIYA5+1jNoJ8/8ILmiCszvTgCvbi7uiqJu8JIqB/ismrcvZKeGLfGh2jk3i4UFyc\nYSVlh/bNFGffZ21Or7UzqJHqnHT96W8mVHrvm/A/Oc9NngPqDdQuC4fC+/FQ7zbL\nhgOc1EobR7fyL9TZWlyc9tMJkBQfbQhSk4ACmMKfAoGAOZDITEP9x4uc9msa4vw8\nCSntERzBSsJ04El3fEF/XiGajIln0BFtbt2Pi9cdREXEnOOzpyT2nUBoVLqmEshp\n4wC1oufEpQfm3WWhz5ZfrhDz6eBmU1aVnK3VdLKQFIXXgix0jFc0/tLNPyQcEP2/\noY7K5kz1GzYoihXn1d3KL80=\n-----END PRIVATE KEY-----\n",
  "client_email": "shuttle-tracking-166812@appspot.gserviceaccount.com",
  "client_id": "100177400106503960192",
  "auth_uri": "https://accounts.google.com/o/oauth2/auth",
  "token_uri": "https://accounts.google.com/o/oauth2/token",
  "auth_provider_x509_cert_url": "https://www.googleapis.com/oauth2/v1/certs",
  "client_x509_cert_url": "https://www.googleapis.com/robot/v1/metadata/x509/shuttle-tracking-166812%40appspot.gserviceaccount.com"
}
